<?xml version="1.0" encoding="utf-8"?>
<!-- Generator: Adobe Illustrator 15.0.0, SVG Export Plug-In . SVG Version: 6.00 Build 0)  -->
<!DOCTYPE svg PUBLIC "-//W3C//DTD SVG 1.1//EN" "http://www.w3.org/Graphics/SVG/1.1/DTD/svg11.dtd">
<svg version="1.1" id="Layer_1" xmlns="http://www.w3.org/2000/svg" xmlns:xlink="http://www.w3.org/1999/xlink" x="0px" y="0px"
	 width="141.73px" height="141.73px" viewBox="0 0 141.73 141.73" enable-background="new 0 0 141.73 141.73" xml:space="preserve">
<path fill="#8E0D15" d="M135.808,70.802c0,35.809-29.029,64.838-64.838,64.838c-35.809,0-64.838-29.029-64.838-64.838
	c0-35.81,29.029-64.838,64.838-64.838C106.778,5.963,135.808,34.992,135.808,70.802"/>
<polygon fill="#FFFFFF" points="85.218,19.679 106.668,42.481 97.256,52.881 119.693,72.641 78.016,125.188 78.016,119.468 
	109.294,71.575 89.455,53.688 99.804,42.403 85.218,24.255 "/>
<polygon fill="#FFFFFF" points="78.535,28.233 90.496,43.392 80.615,53.791 96.735,69.989 78.016,103.166 78.016,97.057 
	88.416,69.911 74.115,55.091 85.035,43.417 78.535,33.563 "/>
<polygon fill="#FFFFFF" points="56.722,19.679 35.271,42.481 44.684,52.881 22.246,72.641 63.923,125.188 63.923,119.468 
	32.646,71.575 52.483,53.688 42.135,42.403 56.722,24.255 "/>
<polygon fill="#FFFFFF" points="63.403,28.233 51.443,43.392 61.323,53.791 45.204,69.989 63.923,103.166 63.923,97.057 
	53.523,69.911 67.823,55.091 56.903,43.417 63.403,33.563 "/>
</svg>
